module rbac-off-blockchain/contract/routeguide

go 1.15

require (
	google.golang.org/grpc v1.37.1
	google.golang.org/grpc/cmd/protoc-gen-go-grpc v1.1.0 // indirect
	google.golang.org/protobuf v1.27.1
)
